{
  "name": "api-uruguay",
  "version": "1.0.0",
  "description": "MI API REST del banco",
  "main": "app.js",
  "scripts": {
    "start": "nodemon app.js",
    "test": "echo \"Error: no test specified\" && exit 1"
  },
  "repository": {
    "type": "git",
    "url": "bitbucket"
  },
  "keywords": [
    "api",
    "uruguay",
    "techu"
  ],
  "author": "Pablo Curbelo Puyol",
  "license": "ISC",
  "dependencies": {
    "express": "^4.16.3"
  },

  "devDependencies": {
    "nodemon": "^1.18.4"
  }

}
